<svg width="82" height="83" viewBox="0 0 82 83" fill="none" xmlns="http://www.w3.org/2000/svg">
<g clip-path="url(#clip0)">
<path d="M15.3533 21.3357C15.8611 21.2528 16.575 21.1757 17.4101 21.1619C18.2456 21.1473 19.2031 21.1926 20.2064 21.3239C20.6388 21.3785 21.0804 21.4528 21.5244 21.5385C21.6771 21.1129 21.8383 20.6952 22.0117 20.2953C22.4105 19.3653 22.8597 18.5185 23.2982 17.8073C23.736 17.0958 24.1663 16.5209 24.4965 16.1265C24.8245 15.7314 25.0544 15.5173 25.0544 15.5173C25.0544 15.5173 25.143 15.8187 25.2237 16.3258C25.3067 16.8334 25.3837 17.5476 25.3975 18.3827C25.4123 19.2182 25.3668 20.1757 25.2355 21.1789C25.181 21.6103 25.1068 22.0506 25.0214 22.4938C25.4473 22.646 25.8652 22.8067 26.2653 22.9799C26.7302 23.1795 27.1746 23.3906 27.5917 23.607C28.0093 23.8214 28.3969 24.0501 28.7535 24.2659C29.1086 24.487 29.4306 24.7023 29.7124 24.9064C29.9939 25.1114 30.2366 25.3004 30.4335 25.467C30.8283 25.796 31.0421 26.0269 31.0421 26.0269C31.0421 26.0269 30.7405 26.1166 30.233 26.1983C29.9787 26.2411 29.6736 26.28 29.3269 26.3128C28.9804 26.3449 28.5934 26.3659 28.1754 26.3751C27.7586 26.3788 27.3085 26.378 26.84 26.3495C26.3708 26.3231 25.8809 26.2779 25.3792 26.2126C24.9478 26.1575 24.5074 26.083 24.0646 25.9971C23.9127 26.4218 23.7522 26.8388 23.5797 27.2379C23.38 27.7028 23.1692 28.1472 22.9526 28.5643C22.7382 28.9819 22.5094 29.3695 22.2937 29.7261C22.0725 30.0812 21.8572 30.4032 21.6529 30.6851C21.448 30.9666 21.2589 31.2093 21.0924 31.4062C20.7633 31.801 20.5324 32.0148 20.5324 32.0148C20.5324 32.0148 20.4428 31.7132 20.3611 31.2057C20.3182 30.9514 20.2793 30.6463 20.2466 30.2996C20.2147 29.9531 20.1935 29.5661 20.1843 29.1479C20.1807 28.7312 20.1816 28.2811 20.2099 27.8125C20.2363 27.3433 20.2815 26.8535 20.3468 26.3517C20.402 25.9193 20.4766 25.4779 20.5629 25.0338C20.1382 24.8814 19.7217 24.7205 19.3226 24.5476C18.3926 24.149 17.5458 23.6997 16.8346 23.2611C16.1231 22.8234 15.5482 22.3931 15.1538 22.0629C14.7587 21.7349 14.5446 21.505 14.5446 21.505C14.5446 21.505 14.8461 21.4164 15.3533 21.3357Z" fill="#F7CF52"/>
<path d="M20.7867 43.3882C20.87 43.3551 20.996 43.293 21.1487 43.2409C21.4564 43.1292 21.8862 43.006 22.3828 42.9278C22.8795 42.8487 23.4439 42.8118 24.0288 42.845C24.1187 42.8496 24.2099 42.859 24.3006 42.8669C24.3401 42.7848 24.3783 42.7016 24.4202 42.6218C24.6898 42.1019 25.0093 41.6351 25.3307 41.2481C25.6512 40.8608 25.9762 40.5539 26.2293 40.3462C26.352 40.2412 26.4697 40.1646 26.5406 40.1099C26.6154 40.0562 26.6615 40.0292 26.6615 40.0292C26.6615 40.0292 26.6873 40.0759 26.7244 40.1603C26.7575 40.2435 26.8197 40.3695 26.8717 40.5223C26.9834 40.83 27.1065 41.2597 27.1849 41.7563C27.2639 42.2531 27.3009 42.8174 27.2676 43.4023C27.263 43.491 27.2538 43.5808 27.2459 43.6702C27.3284 43.7096 27.4118 43.7479 27.4917 43.7899C27.7517 43.925 27.9986 44.0713 28.2286 44.2246C28.4593 44.3762 28.6711 44.5424 28.8654 44.6998C29.0586 44.8621 29.2325 45.0219 29.3833 45.1755C29.5341 45.3296 29.663 45.4732 29.7666 45.6011C29.8714 45.7245 29.9479 45.8423 30.0025 45.9137C30.0561 45.9889 30.0831 46.0352 30.0831 46.0352C30.0831 46.0352 30.0363 46.0612 29.9519 46.0986C29.8685 46.132 29.7424 46.1944 29.5895 46.2472C29.4352 46.3043 29.2512 46.3621 29.0428 46.4179C28.8347 46.4731 28.6035 46.5219 28.3548 46.5629C28.1071 46.5992 27.8404 46.6342 27.5647 46.6469C27.2885 46.6615 27.0014 46.6616 26.7091 46.6452C26.6202 46.6405 26.5301 46.631 26.4405 46.6231C26.4017 46.7042 26.3639 46.7865 26.3226 46.8654C26.1874 47.1253 26.0412 47.3721 25.8878 47.6023C25.7363 47.833 25.57 48.0447 25.4126 48.2391C25.2504 48.4322 25.0905 48.6062 24.9369 48.757C24.7829 48.9077 24.6393 49.0367 24.5113 49.1403C24.3881 49.2451 24.2702 49.3216 24.1989 49.3762C24.1237 49.4298 24.0774 49.4568 24.0774 49.4568C24.0774 49.4568 24.0513 49.41 24.014 49.3256C23.9806 49.2422 23.9181 49.1161 23.8656 48.9632C23.8085 48.809 23.7507 48.625 23.6949 48.4166C23.6399 48.2085 23.5909 47.9772 23.5497 47.7285C23.5135 47.4809 23.4784 47.2141 23.4657 46.9384C23.4511 46.6622 23.4512 46.3751 23.4674 46.0828C23.4721 45.9925 23.4817 45.9013 23.4898 45.8102C23.4089 45.7713 23.327 45.7335 23.2483 45.6922C22.7284 45.4226 22.2616 45.1032 21.8746 44.7817C21.4873 44.4613 21.1804 44.1363 20.9727 43.8831C20.8677 43.7604 20.7911 43.6428 20.7364 43.5719C20.6827 43.4969 20.6557 43.4509 20.6557 43.4509C20.6557 43.4509 20.7024 43.4252 20.7867 43.3882Z" fill="#F7CF52"/>
<path d="M67.6585 23.29C67.7462 23.2552 67.8789 23.1897 68.0399 23.135C68.3642 23.0172 68.8169 22.8875 69.34 22.805C69.8634 22.7217 70.458 22.6828 71.0741 22.7178C71.1689 22.7226 71.2648 22.7326 71.3604 22.7409C71.402 22.6544 71.4423 22.5668 71.4865 22.4828C71.7704 21.9349 72.1072 21.4433 72.4457 21.0355C72.7835 20.6275 73.1258 20.3043 73.3924 20.0852C73.5216 19.9748 73.6457 19.894 73.7203 19.8363C73.7992 19.7797 73.8477 19.7512 73.8477 19.7512C73.8477 19.7512 73.875 19.8003 73.9139 19.8894C73.9487 19.9771 74.0142 20.1098 74.0691 20.2707C74.1868 20.5949 74.3166 21.0477 74.3989 21.5709C74.4822 22.0943 74.5212 22.6889 74.4861 23.305C74.4813 23.3983 74.4715 23.493 74.4632 23.5872C74.5501 23.6287 74.6379 23.6691 74.7222 23.7132C74.996 23.8556 75.2561 24.0098 75.4987 24.1713C75.7417 24.3309 75.9649 24.5061 76.1696 24.6719C76.3731 24.8428 76.5562 25.0114 76.7154 25.173C76.8743 25.3355 77.01 25.4865 77.1192 25.6212C77.2296 25.7512 77.3102 25.8754 77.3679 25.9506C77.4244 26.0298 77.4528 26.0785 77.4528 26.0785C77.4528 26.0785 77.4037 26.1061 77.3146 26.1452C77.2267 26.1805 77.094 26.2462 76.9327 26.3017C76.7701 26.3619 76.5762 26.4228 76.3567 26.4814C76.1374 26.5394 75.894 26.5909 75.6318 26.6342C75.371 26.6724 75.0898 26.7093 74.7994 26.7227C74.5085 26.738 74.2061 26.738 73.8978 26.7209C73.8041 26.716 73.7093 26.7059 73.615 26.6976C73.574 26.783 73.5343 26.8697 73.4907 26.9528C73.3483 27.2267 73.1943 27.4867 73.0327 27.7293C72.873 27.9722 72.6978 28.1955 72.532 28.4002C72.3611 28.6037 72.1926 28.7868 72.031 28.9459C71.8687 29.1049 71.7173 29.2406 71.5828 29.3496C71.4528 29.46 71.3286 29.5405 71.2534 29.5983C71.1742 29.6548 71.1255 29.6832 71.1255 29.6832C71.1255 29.6832 71.0979 29.634 71.0588 29.545C71.0235 29.4571 70.9578 29.3243 70.9023 29.1631C70.8421 29.0005 70.7812 28.8066 70.7226 28.5873C70.6645 28.3679 70.6131 28.1245 70.5698 27.8624C70.5316 27.6016 70.4947 27.3203 70.4812 27.0299C70.4658 26.739 70.4659 26.4366 70.4831 26.1284C70.4881 26.0335 70.4982 25.9372 70.5068 25.8413C70.4215 25.8004 70.3351 25.7606 70.2523 25.7171C69.7044 25.4332 69.2129 25.0964 68.805 24.7579C68.397 24.4201 68.0738 24.0778 67.855 23.8111C67.7444 23.6818 67.6637 23.558 67.6059 23.4831C67.5493 23.4043 67.5208 23.3557 67.5208 23.3557C67.5208 23.3557 67.5696 23.3289 67.6585 23.29Z" fill="#F7CF52"/>
<path d="M38.5774 6.64605C34.9994 5.66533 31.3977 5.30939 27.8881 5.51137C39.3863 13.2524 45.2267 27.7298 41.3598 41.8376C37.4928 55.9455 25.087 65.4213 11.2485 66.2176C14.1646 68.1809 17.4445 69.7112 21.0224 70.6919C38.7083 75.5396 56.9754 65.1323 61.8231 47.4464C66.6708 29.7605 56.2632 11.4937 38.5774 6.64605Z" fill="#F7CF52"/>
<path d="M38.5761 6.64624C37.5997 6.37861 36.6214 6.15752 35.645 5.9822C51.5627 11.9271 60.5938 29.1498 56.015 45.8545C51.4353 62.5627 34.8792 72.7737 18.1513 69.7651C19.084 70.113 20.0416 70.4226 21.0214 70.6911C38.7076 75.5389 56.9751 65.1327 61.8229 47.4465C66.6707 29.7602 56.2623 11.494 38.5761 6.64624Z" fill="#E2BC50"/>
</g>
<defs>
<clipPath id="clip0">
<rect width="66.4082" height="66.4082" fill="white" transform="matrix(-0.964427 -0.264349 -0.264349 0.964427 81.8743 18.5137)"/>
</clipPath>
</defs>
</svg>
